<svg version="1.1" id="L4" xmlns="http://www.w3.org/2000/svg" xmlns:xlink="http://www.w3.org/1999/xlink" x="0px" y="0px"
  viewBox="0 40 52 52" enable-background="new 0 0 0 0" xml:space="preserve">
  <circle fill="#000" stroke="none" cx="6" cy="46" r="6">
    <animate
      attributeName="opacity"
      dur="1s"
      values="0;1;0"
      repeatCount="indefinite"
      begin="0.1"/>    
  </circle>
  <circle fill="#000" stroke="none" cx="26" cy="46" r="6">
    <animate
      attributeName="opacity"
      dur="1s"
      values="0;1;0"
      repeatCount="indefinite" 
      begin="0.2"/>       
  </circle>
  <circle fill="#000" stroke="none" cx="46" cy="46" r="6">
    <animate
      attributeName="opacity"
      dur="1s"
      values="0;1;0"
      repeatCount="indefinite" 
      begin="0.3"/>     
  </circle>
</svg>