<svg xmlns="http://www.w3.org/2000/svg" width="129.512" height="65.208" viewBox="0 0 129.512 65.208">
  <g id="Group_2012" data-name="Group 2012" transform="translate(-585.193 -87.552)">
    <g id="Group_2022" data-name="Group 2022">
      <path id="Path_2464" data-name="Path 2464" d="M591.009,115.922v-6.194h7.015v6.207l3.923,2.105h.316V100.592h-.339l-3.9,2.05v5.593h-7.015V102.6l-3.946-2.011h-.339V118.04h.294Z"/>
      <path id="Path_2465" data-name="Path 2465" d="M607.686,117.815a6.715,6.715,0,0,0,2.638.521,6.059,6.059,0,0,0,2.163-.4,7.53,7.53,0,0,0,1.976-1.113,8,8,0,0,0,1.583-1.647,6.516,6.516,0,0,0,.984-2.007l-2.03-.324a3.453,3.453,0,0,1-.579,1.126,4.5,4.5,0,0,1-.939.914,4.578,4.578,0,0,1-1.177.618,3.874,3.874,0,0,1-1.293.225,2.336,2.336,0,0,1-1.383-.444,4.05,4.05,0,0,1-1.087-1.2,6.793,6.793,0,0,1-.74-1.744,9.429,9.429,0,0,1-.328-2.085H616.6a5.422,5.422,0,0,0-.45-2.2,5.323,5.323,0,0,0-1.266-1.786,5.971,5.971,0,0,0-1.962-1.2,7.017,7.017,0,0,0-2.522-.437,6.939,6.939,0,0,0-2.8.547,6.344,6.344,0,0,0-2.16,1.527,6.868,6.868,0,0,0-1.39,2.31,8.336,8.336,0,0,0-.489,2.889,5.855,5.855,0,0,0,.534,2.464,6.71,6.71,0,0,0,1.448,2.046,6.952,6.952,0,0,0,2.146,1.4Zm.088-10a3.075,3.075,0,0,1,.489-.823,2.155,2.155,0,0,1,.65-.528,1.577,1.577,0,0,1,.733-.187,2.109,2.109,0,0,1,1.608.721,2.893,2.893,0,0,1,.508.83,3.6,3.6,0,0,1,.251,1.062h-4.5a3.944,3.944,0,0,1,.261-1.073Z"/>
      <path id="Path_2466" data-name="Path 2466" d="M622.38,108.376a5.044,5.044,0,0,1,.611-.54,5.294,5.294,0,0,1,.708-.45,4.449,4.449,0,0,1,.733-.309,2.266,2.266,0,0,1,.688-.116.934.934,0,0,1,.528.174,1.736,1.736,0,0,1,.457.463,2.353,2.353,0,0,1,.315.682,2.876,2.876,0,0,1,.116.83v8.93h3.95v-9.663a4.417,4.417,0,0,1,1.994-1.3,2.422,2.422,0,0,1,.721-.116.967.967,0,0,1,.553.174,1.654,1.654,0,0,1,.45.463,2.337,2.337,0,0,1,.3.682,3.062,3.062,0,0,1,.109.83v8.932h4.027V108.8a4.01,4.01,0,0,0-.335-1.634,4.309,4.309,0,0,0-.9-1.325,4.146,4.146,0,0,0-1.319-.888,4,4,0,0,0-1.589-.322,6.392,6.392,0,0,0-1.241.122,8.5,8.5,0,0,0-1.223.335,7.038,7.038,0,0,0-1.139.519,7.786,7.786,0,0,0-.991.669,3.471,3.471,0,0,0-.708-.688,4.711,4.711,0,0,0-.9-.515,5.3,5.3,0,0,0-1-.328,4.809,4.809,0,0,0-1.036-.116,5.587,5.587,0,0,0-1.937.373,8.934,8.934,0,0,0-1.944,1.016v-1.43h-1.2l-2.792,1.469V118.04h3.992Z"/>
      <path id="Path_2467" data-name="Path 2467" d="M644.949,117.942a4.207,4.207,0,0,0,1.113.283,12.54,12.54,0,0,0,1.37.064,6.775,6.775,0,0,0,2.8-.56,6.11,6.11,0,0,0,2.123-1.557,7.049,7.049,0,0,0,1.351-2.368,9.032,9.032,0,0,0,.476-2.992,7.017,7.017,0,0,0-.4-2.38,6.038,6.038,0,0,0-1.132-1.962,5.418,5.418,0,0,0-1.763-1.338,5.219,5.219,0,0,0-2.29-.5,5.543,5.543,0,0,0-2.078.36,5.7,5.7,0,0,0-1.569.94v-1.34h-1.2l-2.819,1.469v17.208l4.015-2.178Zm0-9.35a5.924,5.924,0,0,1,.536-.626,4.218,4.218,0,0,1,.618-.521,3.027,3.027,0,0,1,.688-.354,2.155,2.155,0,0,1,.733-.129,1.578,1.578,0,0,1,.959.328,2.64,2.64,0,0,1,.766.971,6.122,6.122,0,0,1,.5,1.608,12.26,12.26,0,0,1,.18,2.239,7.857,7.857,0,0,1-.2,1.827,5.645,5.645,0,0,1-.54,1.448,2.961,2.961,0,0,1-.8.952,1.582,1.582,0,0,1-.959.341,2.773,2.773,0,0,1-1.023-.18,2.362,2.362,0,0,1-.778-.489,2.209,2.209,0,0,1-.5-.727,2.248,2.248,0,0,1-.18-.894Z"/>
      <path id="Path_2468" data-name="Path 2468" d="M651.411,140.779c-.082-.008-.165-.012-.248-.012a2.457,2.457,0,0,0-2.5,2.415c0,.038,0,.077,0,.115a2.446,2.446,0,0,0,2.347,2.542h.233a2.973,2.973,0,0,0,1.99-.67l-.56-.82a1.97,1.97,0,0,1-1.29.48,1.3,1.3,0,0,1-1.39-1.12h3.59v-.28a2.421,2.421,0,0,0-2.172-2.65Zm-1.438,2.068a1.162,1.162,0,0,1,1.19-1.07,1.119,1.119,0,0,1,1.189,1.045v.025Z"/>
      <path id="Path_2469" data-name="Path 2469" d="M594.471,140.762a1.384,1.384,0,0,0-.328.005,2.234,2.234,0,0,0-1.7.75v-2.47h-1.27v6.67h1.27v-3.25a1.408,1.408,0,0,1,1.1-.57c.55,0,.9.21.9.88v2.94h1.27v-3.43A1.391,1.391,0,0,0,594.471,140.762Z"/>
      <path id="Path_2470" data-name="Path 2470" d="M585.193,140.3h1.95v5.42h1.43V140.3h1.94v-1.25h-5.32Z"/>
      <path id="Path_2471" data-name="Path 2471" d="M642.113,144.157a1.42,1.42,0,0,1-1.1.55.777.777,0,0,1-.89-.89v-2.93h-1.27v3.43a1.384,1.384,0,0,0,1.56,1.52,2.259,2.259,0,0,0,1.7-.73v.61h1.27v-4.83h-1.27Z"/>
      <path id="Path_2472" data-name="Path 2472" d="M612.653,140.887h-1.27v4.83h1.27v-3.19a1.613,1.613,0,0,1,1.19-.54,1.706,1.706,0,0,1,.35.03v-1.24a2.063,2.063,0,0,0-1.54.77Z"/>
      <path id="Path_2473" data-name="Path 2473" d="M617.2,140.766H617a2.446,2.446,0,0,0-2.549,2.338v.192a2.449,2.449,0,0,0,2.354,2.54h.2a2.452,2.452,0,0,0,2.56-2.338v-.2a2.449,2.449,0,0,0-2.365-2.532Zm1.044,2.531a1.279,1.279,0,0,1-1.138,1.4l-.1.006a1.271,1.271,0,0,1-1.237-1.3.534.534,0,0,1,.007-.106,1.267,1.267,0,0,1,1.124-1.4c.034,0,.069-.006.1-.007a1.275,1.275,0,0,1,1.246,1.3.735.735,0,0,1,0,.107Z"/>
      <path id="Path_2474" data-name="Path 2474" d="M625.123,144.137l-1.06-3.25h-1.13l-1.06,3.25-.9-3.25h-1.32l1.47,4.83h1.36l1.02-3.29,1.02,3.29h1.35l1.47-4.83h-1.32Z"/>
      <path id="Path_2475" data-name="Path 2475" d="M635.769,140.766h-.2a2.446,2.446,0,0,0-2.549,2.338q0,.1,0,.192a2.449,2.449,0,0,0,2.354,2.54h.2a2.452,2.452,0,0,0,2.56-2.338v-.2a2.449,2.449,0,0,0-2.365-2.532Zm1.044,2.531a1.279,1.279,0,0,1-1.138,1.4l-.1.006a1.271,1.271,0,0,1-1.237-1.3.534.534,0,0,1,.007-.106,1.267,1.267,0,0,1,1.127-1.393c.034,0,.069-.006.1-.007a1.275,1.275,0,0,1,1.246,1.3.858.858,0,0,1,0,.1Z"/>
      <path id="Path_2476" data-name="Path 2476" d="M631.051,140.762a1.385,1.385,0,0,0-.328,0,2.234,2.234,0,0,0-1.7.75v-2.47h-1.27v6.67h1.27v-3.25a1.408,1.408,0,0,1,1.1-.57c.55,0,.9.21.9.88v2.94h1.27v-3.43A1.391,1.391,0,0,0,631.051,140.762Z"/>
      <path id="Path_2477" data-name="Path 2477" d="M646.313,142.707c-.54-.11-.92-.22-.92-.52,0-.28.3-.45.76-.45a2.036,2.036,0,0,1,1.43.56l.5-.87a3.032,3.032,0,0,0-1.94-.66c-1.27,0-1.98.71-1.98,1.52,0,1.15,1.07,1.35,1.9,1.51.55.11.97.23.97.57,0,.3-.26.49-.81.49a2.765,2.765,0,0,1-1.67-.66l-.55.89a3.253,3.253,0,0,0,2.16.75c1.34,0,2.09-.66,2.09-1.55C648.253,143.087,647.143,142.867,646.313,142.707Z"/>
      <path id="Path_2478" data-name="Path 2478" d="M607.323,143.257h1.78v.81a2.255,2.255,0,0,1-1.44.51,2.077,2.077,0,0,1-2.093-2.061v-.129a2.078,2.078,0,0,1,1.961-2.187h.129a1.893,1.893,0,0,1,1.58.84l1.18-.64a3.122,3.122,0,0,0-2.76-1.46,3.381,3.381,0,0,0-3.546,3.209c0,.08,0,.161,0,.241a3.4,3.4,0,0,0,3.336,3.463h.214a3.7,3.7,0,0,0,2.84-1.26v-2.55h-3.18Z"/>
      <path id="Path_2479" data-name="Path 2479" d="M599.191,140.779c-.082-.008-.165-.012-.248-.012a2.457,2.457,0,0,0-2.5,2.415v.115a2.447,2.447,0,0,0,2.347,2.542h.233a2.974,2.974,0,0,0,1.99-.67l-.56-.82a1.97,1.97,0,0,1-1.29.48,1.3,1.3,0,0,1-1.39-1.12h3.59v-.28a2.421,2.421,0,0,0-2.172-2.65Zm-1.438,2.068a1.162,1.162,0,0,1,1.19-1.07,1.119,1.119,0,0,1,1.189,1.045v.025Z"/>
      <path id="Union_64" data-name="Union 64" d="M65.728,18.094a7.3,7.3,0,0,1-2.26-1.465,6.977,6.977,0,0,1-1.522-2.137,6.065,6.065,0,0,1-.562-2.574A8.632,8.632,0,0,1,61.9,8.9,7.143,7.143,0,0,1,63.36,6.488,6.661,6.661,0,0,1,65.626,4.9a7.331,7.331,0,0,1,2.943-.571,7.421,7.421,0,0,1,2.652.457,6.3,6.3,0,0,1,2.063,1.25A5.567,5.567,0,0,1,74.618,7.9a5.638,5.638,0,0,1,.473,2.3H65.5a9.731,9.731,0,0,0,.345,2.177,7.083,7.083,0,0,0,.778,1.821,4.225,4.225,0,0,0,1.144,1.25,2.463,2.463,0,0,0,1.455.464,4.073,4.073,0,0,0,1.36-.235,4.841,4.841,0,0,0,1.238-.645,4.747,4.747,0,0,0,.988-.954,3.62,3.62,0,0,0,.609-1.176l2.138.336a6.8,6.8,0,0,1-1.035,2.1,8.394,8.394,0,0,1-1.665,1.721,7.964,7.964,0,0,1-2.077,1.163,6.4,6.4,0,0,1-2.273.424A7.1,7.1,0,0,1,65.728,18.094ZM67.013,6.239a2.26,2.26,0,0,0-.683.551,3.224,3.224,0,0,0-.514.86,4.063,4.063,0,0,0-.277,1.122h4.736a3.742,3.742,0,0,0-.264-1.109,3.037,3.037,0,0,0-.534-.867,2.226,2.226,0,0,0-1.691-.752A1.67,1.67,0,0,0,67.013,6.239ZM54.8,18.639,48.822,4.566h4.4l3.33,8.387,3.385-8.387H62.8L56.713,18.639Zm-14.283-.545a7.3,7.3,0,0,1-2.26-1.465,6.977,6.977,0,0,1-1.522-2.137,6.065,6.065,0,0,1-.562-2.574A8.632,8.632,0,0,1,36.693,8.9a7.143,7.143,0,0,1,1.461-2.413A6.661,6.661,0,0,1,40.421,4.9a7.331,7.331,0,0,1,2.943-.571,7.421,7.421,0,0,1,2.652.457,6.3,6.3,0,0,1,2.063,1.25A5.567,5.567,0,0,1,49.412,7.9a5.639,5.639,0,0,1,.474,2.3H40.292a9.732,9.732,0,0,0,.345,2.177,7.082,7.082,0,0,0,.778,1.821,4.225,4.225,0,0,0,1.144,1.25,2.462,2.462,0,0,0,1.455.464,4.073,4.073,0,0,0,1.36-.235,4.841,4.841,0,0,0,1.238-.645,4.736,4.736,0,0,0,.988-.954,3.62,3.62,0,0,0,.609-1.176l2.138.336a6.8,6.8,0,0,1-1.035,2.1,8.394,8.394,0,0,1-1.665,1.721,7.964,7.964,0,0,1-2.077,1.163,6.4,6.4,0,0,1-2.273.424A7.1,7.1,0,0,1,40.522,18.094ZM41.807,6.239a2.26,2.26,0,0,0-.683.551,3.224,3.224,0,0,0-.514.86,4.063,4.063,0,0,0-.277,1.122h4.736A3.743,3.743,0,0,0,44.8,7.664,3.037,3.037,0,0,0,44.27,6.8a2.226,2.226,0,0,0-1.691-.752A1.67,1.67,0,0,0,41.807,6.239ZM16.146,17.894a7.168,7.168,0,0,1-2.329-1.478,6.775,6.775,0,0,1-2.088-4.96,7.579,7.579,0,0,1,.553-2.923,6.831,6.831,0,0,1,3.851-3.817,7.752,7.752,0,0,1,2.934-.545,7.983,7.983,0,0,1,2.941.531A7.174,7.174,0,0,1,24.343,6.16a6.739,6.739,0,0,1,1.542,2.184,6.58,6.58,0,0,1,.559,2.708,7.451,7.451,0,0,1-.553,2.863,7.177,7.177,0,0,1-3.871,3.931,7.334,7.334,0,0,1-2.941.585A7.843,7.843,0,0,1,16.146,17.894ZM17.584,6.187a3.31,3.31,0,0,0-.781.974,5.873,5.873,0,0,0-.54,1.411,6.889,6.889,0,0,0-.2,1.687,12.577,12.577,0,0,0,.241,2.513,8.078,8.078,0,0,0,.689,2.063,4.212,4.212,0,0,0,1.093,1.4,2.273,2.273,0,0,0,1.463.518,1.6,1.6,0,0,0,1.015-.37,3.23,3.23,0,0,0,.813-.995,5.555,5.555,0,0,0,.533-1.445,7.571,7.571,0,0,0,.189-1.707,15.452,15.452,0,0,0-.189-2.48,7.229,7.229,0,0,0-.618-2.036A3.765,3.765,0,0,0,20.18,6.335a2.712,2.712,0,0,0-1.672-.511A1.439,1.439,0,0,0,17.584,6.187ZM75.877,18.329V5.816l2.936-1.532,1.259,1.344a5.779,5.779,0,0,1,1.536-1.143,3.875,3.875,0,0,1,1.779-.43,3.576,3.576,0,0,1,1.637.369,6.949,6.949,0,0,1,1.272.813L84.848,7.456q-.284-.242-.521-.417a2.762,2.762,0,0,0-.467-.282A2.009,2.009,0,0,0,83.38,6.6a3.056,3.056,0,0,0-.562-.047,2.663,2.663,0,0,0-.853.141,3.2,3.2,0,0,0-.785.39,3.505,3.505,0,0,0-.656.578,2.65,2.65,0,0,0-.453.705v9.96Zm-48.139,0V5.816l2.936-1.532,1.259,1.344a5.779,5.779,0,0,1,1.536-1.143,3.875,3.875,0,0,1,1.779-.43,3.576,3.576,0,0,1,1.637.369,3.69,3.69,0,0,1,1.029.72c-.01,0-.1.021-.926.9-.217.231-.8.987-.8.987s-.313-.2-.466-.275A2.009,2.009,0,0,0,35.24,6.6a3.056,3.056,0,0,0-.562-.047,2.663,2.663,0,0,0-.853.141,3.2,3.2,0,0,0-.785.39,3.505,3.505,0,0,0-.656.578,2.65,2.65,0,0,0-.453.705v9.96ZM0,18.226V0H14.638V1.663H4.506V7.774h6.708V9.437H4.506v8.789ZM37.913,5.145h0Z" transform="translate(586.724 118.273)"/>
    </g>
    <g id="Group_2023" data-name="Group 2023">
      <path id="Path_2480" data-name="Path 2480" d="M705.359,97.143a32.7,32.7,0,0,0-46.886.632,1.785,1.785,0,1,0,2.59,2.456,29.148,29.148,0,1,1,.12,40.23h0a1.785,1.785,0,0,0-2.524-.052h0a1.786,1.786,0,0,0-.052,2.524A32.721,32.721,0,1,0,705.36,97.142Z" fill="#5e8b52"/>
      <path id="Path_2481" data-name="Path 2481" d="M674.639,114.245s-.119-.692-.355-.735-.284-.01-.284-.01-.251-.571-.482-.606-.306.08-.306.08-.373-.722-.581-.715a.474.474,0,0,0-.337.241s-.671-.779-.91-.77a.482.482,0,0,0-.365.258s-.259-.386-.4-.371a.64.64,0,0,0-.23.066,8.766,8.766,0,0,0-1.061-1.263c-.158-.028.328,1.78.328,1.78a1.386,1.386,0,0,0-.106.5.418.418,0,0,0,.1.23,1.148,1.148,0,0,0-.056.49.3.3,0,0,0,.172.241.665.665,0,0,0-.11.519c.053.33.518.708.518.708s-.308.414-.08.663.384.228.384.228-.248.479.094.739.521.19.521.19a.325.325,0,0,0-.04.459.348.348,0,0,0,.063.058,1.131,1.131,0,0,0,.562.3.559.559,0,0,0,.214.44.788.788,0,0,0,.553.209.915.915,0,0,0,.339.3.72.72,0,0,0,.47.053.624.624,0,0,0,.349.4,1.092,1.092,0,0,0,.592.106,2.68,2.68,0,0,0,1.3.4c.969.112,1.245-.266,1.245-.266s.11-.781.124-1.251a3.059,3.059,0,0,0-.062-.939.242.242,0,0,0-.138-.1c-.035-.007-.184-.011-.184-.011a2.408,2.408,0,0,0-.16-.715.255.255,0,0,0-.249-.109,3.28,3.28,0,0,0-.245-.734c-.125-.194-.258-.383-.328-.383a.755.755,0,0,0-.156.023s-.092-.58-.37-.7S674.639,114.245,674.639,114.245Z" fill="#5e8b52"/>
      <path id="Path_2482" data-name="Path 2482" d="M675.065,108.761c-.13.2.281,1.1.281,1.1s-.151,0-.254.247.291.82.291.82-.228.023-.157.288a2.693,2.693,0,0,0,.487.77s-.23.032-.21.377a1.316,1.316,0,0,0,.453.712s-.122.107-.126.185a1.264,1.264,0,0,0,.181.494,3.571,3.571,0,0,0,.552.661.3.3,0,0,0-.045.306c.072.184.585.568.585.568s-.085.147-.1.186a.288.288,0,0,0,.017.194,3.334,3.334,0,0,0,.856.6c.455.257,1.643.717,1.643.717a7.338,7.338,0,0,0,.6-1.179,3.116,3.116,0,0,0,.4-1.5,1.272,1.272,0,0,0,.25-.639.7.7,0,0,0-.173-.571.845.845,0,0,0,.227-.49,1.028,1.028,0,0,0-.088-.507s.091-.047.015-.416-.184-.278-.184-.278a5.771,5.771,0,0,0-.065-.992c-.08-.454-.711-.48-.711-.48s.173-.133.128-.618-.646-.516-.646-.516.113-.14.011-.507-.677-.3-.677-.3.266-.672-.016-.914a.72.72,0,0,0-.558-.19.322.322,0,0,0-.127-.306,1.217,1.217,0,0,0-.5-.227.444.444,0,0,0-.156-.235,1.5,1.5,0,0,0-.536-.183s-1.43-1.514-1.5-1.343a10.073,10.073,0,0,0,.351,1.693.2.2,0,0,1,.023.257c-.1.131-.041.529-.041.529a.711.711,0,0,0-.3.285c-.149.228.193,1.332.193,1.332A.29.29,0,0,0,675.065,108.761Z" fill="#5e8b52"/>
      <path id="Path_2483" data-name="Path 2483" d="M681.4,108.473s-.32.225-.277.52a.974.974,0,0,0,.328.522,1,1,0,0,0-.106.656,5.077,5.077,0,0,0,.389.922s-.25.067-.167.449.74.95.74.95-.366.221-.14.487a7.956,7.956,0,0,0,1.216.845c.16-.007.833-.515,1.331-.722s1.013-.407,1.013-.407a15.14,15.14,0,0,0,.455-2.073c-.06-.183-.119-.117-.119-.117a6.062,6.062,0,0,0,.228-1.472.186.186,0,0,0-.212-.091s.363-1.118.232-1.252a.363.363,0,0,0-.226-.134s.209-1.133.009-1.251a.331.331,0,0,0-.36,0s.132-.931-.068-1.048a.694.694,0,0,0-.477-.036s.136-1.08-.089-1.17-.29.069-.29.069a4.989,4.989,0,0,0-.312-.928c-.118-.154-.31.016-.31.016s.1-.433-.166-.623-.36-.19-.36-.19-.551-1.793-.8-1.8-.1,1.654-.147,1.835a.507.507,0,0,1-.108.239s-.3.067-.243.315a.454.454,0,0,1-.008.349s-.534-.064-.534.335a1.714,1.714,0,0,0,.061.552s-.166.188-.156.284a1.255,1.255,0,0,1,0,.212s-.477.237-.433.579a2.887,2.887,0,0,0,.2.688.574.574,0,0,0-.29.369,3.607,3.607,0,0,0,.094.816.727.727,0,0,0-.274.464,2.345,2.345,0,0,0,.376.841Z" fill="#5e8b52"/>
      <path id="Path_2484" data-name="Path 2484" d="M686.848,110.509a1.386,1.386,0,0,0,.175.721,1.844,1.844,0,0,0-.122.653c.058.135.355.325.355.325s1.4-.379,2.005-.476,1.544-.224,1.544-.224a6.823,6.823,0,0,0,.558-1.166.615.615,0,0,0-.223-.115s.549-1.134.438-1.3a.2.2,0,0,0-.263-.091s.53-.954.308-1.078a.371.371,0,0,0-.37-.029s.611-1.1.322-1.322-.4-.072-.4-.072.324-1.146.153-1.307a.34.34,0,0,0-.362-.076s.295-.573.171-.677-.272-.207-.272-.207a10.824,10.824,0,0,0,.12-1.761,12.176,12.176,0,0,0-1.017,1.481s-.376-.025-.469.213a4.383,4.383,0,0,0-.146.447s-.461.366-.461.549-.009.389-.009.389-.379-.111-.48.037a2.877,2.877,0,0,0-.069.877s-.411-.04-.5.153a2.458,2.458,0,0,0-.019.807.476.476,0,0,0-.4.3,3.5,3.5,0,0,0-.075,1.085.411.411,0,0,0-.435.385v0a4.175,4.175,0,0,0,.21,1.14.384.384,0,0,0-.267.334Z" fill="#5e8b52"/>
      <path id="Path_2485" data-name="Path 2485" d="M675.3,122.54c-.516.143-.262,2.106.523,4.386,1.189,3.456,5.092,2.031,6.764,1.813s4.076,1.5,3.747,1.943c-.534.717-1.719-.049-3.415.045s-4.184,1.469-4.559,2.149-.31,3.24.012,3.473a89.69,89.69,0,0,0,10.383.023c.346-.167-.728-4.684-.441-6.065.24-1.155,5.3-5.214,5.664-7.853.315-2.275-1.906-9.076-2.97-9.561-1.322-.6-8.07,2.6-7.61,3.146,2.474,2.916,5.565.074,5.551.162-.254,1.643,2.7,4.5,2.429,4.673s-2.708-.928-5.714-.208c-2.786.667-4.521,3.938-4.521,3.938a5.552,5.552,0,0,0-5.843-2.064Z" fill="#5e8b52"/>
    </g>
  </g>
</svg>
