<svg xmlns="http://www.w3.org/2000/svg" width="8.41" height="4.205" viewBox="0 0 8.41 4.205">
  <path id="Path_1439" data-name="Path 1439" d="M3,7,0,3.5,3,0" transform="translate(0.705 3.705) rotate(-90)" fill="none" stroke="#000" stroke-linecap="round" stroke-linejoin="round" stroke-width="1"/>
</svg>
