<svg xmlns="http://www.w3.org/2000/svg" width="12.745" height="18.285" viewBox="0 0 12.745 18.285">
  <g id="youtube-symbol" transform="translate(-14.676 18.285) rotate(-90)">
    <path id="Path_851" data-name="Path 851" d="M17.969,16.726a2.31,2.31,0,0,0-1.977-1.8,61.439,61.439,0,0,0-6.847-.253,61.449,61.449,0,0,0-6.848.253,2.31,2.31,0,0,0-1.976,1.8A19.582,19.582,0,0,0,0,21.049a19.577,19.577,0,0,0,.319,4.322,2.31,2.31,0,0,0,1.976,1.8,61.4,61.4,0,0,0,6.847.253,61.384,61.384,0,0,0,6.847-.253,2.311,2.311,0,0,0,1.976-1.8,19.567,19.567,0,0,0,.32-4.322A19.58,19.58,0,0,0,17.969,16.726ZM6.783,23.887V17.84L12.6,20.873Z"/>
  </g>
</svg>
