<svg id="Component_1_166" data-name="Component 1 – 166" xmlns="http://www.w3.org/2000/svg" width="17.378" height="18" viewBox="0 0 17.378 18">
  <path id="search" d="M18.1,16.4,13.814,11.94a7.265,7.265,0,1,0-5.562,2.6,7.19,7.19,0,0,0,4.164-1.315l4.317,4.489A.948.948,0,1,0,18.1,16.4ZM8.251,1.9A5.372,5.372,0,1,1,2.88,7.267,5.378,5.378,0,0,1,8.251,1.9Z" transform="translate(-0.984)" fill="#161616"/>
  <g id="Group_1558" data-name="Group 1558" transform="translate(4.489 4.593)">
    <path id="Path_1376" data-name="Path 1376" d="M66.5,435.445v5.513" transform="translate(-63.744 -435.445)" fill="none" stroke="#000" stroke-linecap="round" stroke-width="1"/>
    <path id="Path_1377" data-name="Path 1377" d="M0,0V5.513" transform="translate(0 2.756) rotate(-90)" fill="none" stroke="#000" stroke-linecap="round" stroke-width="1"/>
  </g>
</svg>
